<svg width="70" height="70" viewBox="0 0 70 70" fill="none" xmlns="http://www.w3.org/2000/svg">
<rect width="70" height="70" rx="13" fill="#242424"/>
<g opacity="0.3">
<path d="M37.5633 34.8373C37.5612 34.8158 37.5586 34.7943 37.5549 34.7712C37.5517 34.7466 37.5475 34.723 37.5402 34.6852L36.8998 31.9058L41.4038 25.5387C41.4069 25.5319 41.4111 25.5272 41.4148 25.5225L41.4279 25.501C41.4504 25.469 41.4698 25.4365 41.4893 25.4066L41.5113 25.3651C41.527 25.3368 41.5412 25.3095 41.5553 25.2775C41.5637 25.2628 41.57 25.2476 41.5727 25.2413L41.5984 25.1789C41.6104 25.1459 41.623 25.1128 41.6324 25.0798C41.6377 25.0651 41.6429 25.0483 41.6471 25.0268C41.6555 24.9953 41.6639 24.966 41.6713 24.9292C41.6755 24.9109 41.6781 24.8931 41.6807 24.8747L41.162 24.7939L41.6854 24.8516C41.6891 24.8285 41.6922 24.8055 41.6959 24.7787C41.6975 24.7541 41.6991 24.7289 41.7012 24.7058L41.1772 24.6759L41.7027 24.6827C41.7033 24.6644 41.7043 24.6465 41.7043 24.6298C41.7043 24.5999 41.7043 24.5721 41.7027 24.5369C41.7012 24.5186 41.7012 24.5007 41.6985 24.474C41.6959 24.4462 41.6922 24.4184 41.687 24.3764C41.6844 24.3602 41.6818 24.3439 41.6786 24.3266C41.6744 24.3051 41.6702 24.2836 41.6629 24.2521L41.6587 24.2343C41.654 24.2159 41.6487 24.196 41.645 24.1797C41.6366 24.1535 41.6288 24.1267 41.6235 24.1121C41.6151 24.0869 41.6062 24.0607 41.5921 24.026C41.5831 24.0061 41.5753 23.9846 41.5706 23.9762C41.559 23.95 41.5475 23.9248 41.5291 23.887L41.5008 23.8356C41.4877 23.8126 41.4735 23.7879 41.4562 23.7596C41.4462 23.7449 41.4363 23.7297 41.42 23.7082C41.4053 23.6851 41.3891 23.6636 41.367 23.6337C41.3529 23.6169 41.3387 23.6007 41.324 23.5839L40.9291 23.929L41.3104 23.5671C41.2962 23.5508 41.2821 23.5346 41.2732 23.5246C41.2501 23.501 41.2259 23.4779 41.1992 23.4533C41.184 23.4386 41.1677 23.4234 41.1609 23.4187C41.1315 23.3924 41.1011 23.3688 41.0791 23.3526C41.0681 23.3442 41.0586 23.3363 41.0476 23.3295L41.0119 23.3048C40.9941 23.2917 40.9726 23.2797 40.9469 23.2634C40.9286 23.2519 40.9097 23.2403 40.896 23.2335C40.8808 23.223 40.864 23.2151 40.8341 23.2005C40.8153 23.1921 40.7974 23.1826 40.7791 23.1742L31.3562 19.1926L27.7098 12.7967C27.4307 12.3047 26.9052 12 26.3403 12C26.067 12 25.7984 12.0719 25.5614 12.2067C25.1953 12.4149 24.9325 12.7537 24.8218 13.1597C24.7101 13.5646 24.7641 13.9895 24.9718 14.3561L28.8946 21.2393C29.1003 21.5996 29.4438 21.8671 29.8451 21.9778L37.7133 25.3006L33.92 30.6617C33.9127 30.6727 33.9048 30.6847 33.8969 30.6978L33.855 30.7639C33.8434 30.7833 33.8335 30.8017 33.8151 30.8347C33.8041 30.8562 33.7931 30.8799 33.7826 30.9008C33.7716 30.9244 33.7611 30.9475 33.7495 30.9758C33.7411 30.9973 33.7333 31.0183 33.7196 31.0566C33.7113 31.0781 33.705 31.0996 33.6966 31.1258C33.6897 31.1474 33.685 31.1673 33.6787 31.1935C33.6735 31.215 33.6677 31.2386 33.6619 31.2685C33.6572 31.2932 33.653 31.3178 33.6494 31.3456C33.6457 31.3708 33.6425 31.3939 33.6404 31.4117C33.6373 31.4385 33.6357 31.4652 33.6347 31.4909L33.6336 31.5108C33.6331 31.5308 33.632 31.5502 33.632 31.5701C33.632 31.5969 33.6336 31.6231 33.6347 31.6525C33.6362 31.6776 33.6383 31.7007 33.6404 31.7254C33.6425 31.7505 33.6457 31.7768 33.6509 31.803C33.6541 31.8261 33.6577 31.8476 33.663 31.8775L34.1214 33.8654L23.0579 36.8598L23.028 36.8698C23.0023 36.8782 22.9766 36.8861 22.9519 36.895L22.933 36.9013C22.9157 36.9081 22.8995 36.9128 22.8874 36.918C22.8591 36.9291 22.8313 36.9427 22.8103 36.9521C22.7867 36.9637 22.7636 36.9736 22.7484 36.982C22.7232 36.9952 22.6991 37.0088 22.6828 37.0182C22.6566 37.035 22.6299 37.0502 22.6068 37.0665C22.5868 37.0796 22.5669 37.0932 22.5433 37.1111C22.5223 37.1258 22.5024 37.141 22.4872 37.1525C22.4715 37.1656 22.4547 37.1787 22.44 37.1934L22.7888 37.5852L22.4253 37.2065C22.409 37.2212 22.3917 37.2364 22.3676 37.2595C22.3545 37.2726 22.343 37.2863 22.3288 37.3009C22.3099 37.3209 22.291 37.3424 22.2721 37.3639C22.2575 37.3817 22.2438 37.398 22.2302 37.4169L22.6472 37.7358L22.216 37.4347C22.205 37.4515 22.1929 37.4667 22.1814 37.4829C22.1678 37.5029 22.1541 37.5244 22.1421 37.5438L22.5884 37.8197L22.1326 37.5585C22.1216 37.5768 22.1111 37.5931 22.1027 37.6083C22.0896 37.6335 22.0775 37.6581 22.0613 37.6891C22.0529 37.7059 22.045 37.7221 22.0345 37.7452C22.0246 37.7667 22.0167 37.7898 22.0073 37.8129L21.98 37.8858C21.9716 37.911 21.9653 37.9356 21.9532 37.9786C21.9485 38.0001 21.9422 38.0195 21.9401 38.0316C21.9344 38.0547 21.9302 38.0798 21.9239 38.1176C21.9186 38.1438 21.9155 38.1706 21.9118 38.2L21.906 38.2577C21.9039 38.2844 21.9024 38.3106 21.9018 38.3437L21.9008 38.3799C21.9008 44.7915 27.1176 50.0083 33.5292 50.0083C34.3984 50.0083 35.1049 49.3008 35.1049 48.4332C35.1049 47.5641 34.3984 46.857 33.5292 46.857C29.3221 46.857 25.7161 43.6874 25.1344 39.5632L36.4025 36.5126C36.4235 36.5079 36.444 36.5016 36.4702 36.4932C36.4927 36.4843 36.5153 36.4785 36.5368 36.4717C36.5615 36.4612 36.5872 36.4518 36.606 36.4418C36.6328 36.4313 36.659 36.4203 36.6852 36.4087C36.7052 36.3988 36.7246 36.3872 36.7597 36.3694C36.7802 36.3579 36.8012 36.3458 36.8137 36.3374C36.8379 36.3248 36.8615 36.3075 36.884 36.2928C36.904 36.2797 36.9228 36.2645 36.947 36.2482C36.9685 36.232 36.9889 36.2157 37.0041 36.2021C37.0241 36.1858 37.044 36.169 37.0687 36.146C37.086 36.1297 37.1022 36.1134 37.1185 36.0982C37.1358 36.0799 37.1531 36.062 37.1715 36.0421C37.1898 36.0222 37.2061 36.0007 37.2171 35.9891C37.2328 35.9708 37.247 35.9508 37.2674 35.9246C37.2821 35.9047 37.2968 35.8832 37.3073 35.8669C37.3209 35.847 37.3346 35.8255 37.355 35.7924L37.3939 35.7211C37.4033 35.7027 37.4127 35.6849 37.4211 35.6666C37.4321 35.6451 37.4411 35.6215 37.4531 35.5968C37.4631 35.5721 37.4725 35.547 37.4762 35.536C37.4862 35.5124 37.4935 35.4893 37.503 35.4583C37.5113 35.4337 37.5182 35.4069 37.5239 35.387C37.5308 35.3587 37.537 35.3314 37.5412 35.3099C37.5475 35.2816 37.5523 35.2553 37.5554 35.237C37.5596 35.2102 37.5622 35.1824 37.5654 35.1562C37.569 35.1295 37.5706 35.1048 37.5722 35.0754C37.5738 35.0487 37.5738 35.0219 37.5738 35.0025C37.5748 34.9758 37.5748 34.949 37.5738 34.9275C37.5685 34.9034 37.5669 34.8787 37.5633 34.8373Z" fill="white"/>
<path d="M25.8838 22.8244C26.1203 22.4756 26.2058 22.0555 26.1251 21.6427C26.0459 21.2294 25.8093 20.8722 25.4605 20.6377C25.1988 20.461 24.894 20.3665 24.5798 20.3665C24.0543 20.3665 23.566 20.6262 23.2728 21.0605C22.5757 22.0938 21.6405 22.8517 20.6381 23.1989C19.7994 23.49 19.021 23.4402 18.4572 23.0583C18.1949 22.8811 17.8912 22.7887 17.576 22.7887C17.0515 22.7887 16.5621 23.0479 16.2689 23.4827C15.7832 24.2028 15.9736 25.1826 16.6933 25.6704C17.0352 25.9017 17.405 26.09 17.7921 26.2301C18.3591 26.4357 18.9644 26.5395 19.5917 26.5395C19.5928 26.5395 19.5928 26.5395 19.5928 26.5395C20.2725 26.5395 20.9717 26.4173 21.6693 26.1761C23.3105 25.608 24.808 24.4189 25.8838 22.8244Z" fill="white"/>
<path d="M42.9357 38.1438C42.6121 37.8202 42.182 37.6419 41.7246 37.6419C41.2667 37.6419 40.8371 37.8202 40.513 38.1438C40.1894 38.4664 40.0121 38.8981 40.0121 39.3555C40.0121 39.8134 40.1894 40.2429 40.513 40.5671C41.4199 41.4729 41.9192 42.6772 41.9192 43.9581C41.9192 45.2368 41.4204 46.4416 40.513 47.349C40.1894 47.6727 40.0121 48.1028 40.0121 48.5607C40.0121 49.018 40.1894 49.4476 40.513 49.7718C40.8366 50.0938 41.2667 50.2727 41.7246 50.2727C42.182 50.2727 42.6116 50.0938 42.9357 49.7718C44.4893 48.2187 45.3453 46.1532 45.3453 43.9586C45.3453 41.764 44.4888 39.6974 42.9357 38.1438Z" fill="white"/>
<path d="M46.8611 34.4475C46.538 34.1255 46.1074 33.9466 45.6506 33.9466C45.1927 33.9466 44.7626 34.1255 44.4389 34.4475C44.1153 34.7711 43.9365 35.2012 43.9365 35.6586C43.9365 36.1165 44.1153 36.5461 44.4389 36.8702C46.4861 38.9174 47.6133 41.636 47.6133 44.5281C47.6133 47.4182 46.4866 50.1378 44.4389 52.186C43.7718 52.8532 43.7718 53.9395 44.4389 54.6082C44.762 54.9303 45.1927 55.1091 45.6506 55.1091C46.1074 55.1091 46.5375 54.9303 46.8611 54.6082C49.5556 51.9127 51.0394 48.334 51.0394 44.5281C51.0394 40.7223 49.5556 37.1425 46.8611 34.4475Z" fill="white"/>
<path d="M51.1224 30.3507C50.7993 30.0271 50.3681 29.8482 49.9113 29.8482C49.4539 29.8482 49.0243 30.0271 48.7007 30.3507C48.0335 31.0179 48.0335 32.1041 48.7007 32.7713C51.8431 35.9142 53.574 40.0904 53.574 44.5272C53.574 48.9641 51.8431 53.1397 48.7007 56.281C48.0325 56.9503 48.0335 58.0361 48.7002 58.7038C49.0233 59.0279 49.4539 59.2063 49.9123 59.2063C50.3692 59.2063 50.7993 59.0279 51.1224 58.7043C54.913 54.9147 57.0001 49.8799 57.0001 44.5278C57.0001 39.1756 54.9125 34.1403 51.1224 30.3507Z" fill="white"/>
</g>
</svg>
