<svg width="15" height="15" viewBox="0 0 15 15" fill="none" xmlns="http://www.w3.org/2000/svg">
<path d="M13.7674 6.32558H8.55814V1.11628C8.55814 0.483721 8.07442 0 7.44186 0C6.8093 0 6.32558 0.483721 6.32558 1.11628V6.32558H1.11628C0.483721 6.32558 0 6.8093 0 7.44186C0 8.07442 0.483721 8.55814 1.11628 8.55814H6.32558V13.7674C6.32558 14.4 6.8093 14.8837 7.44186 14.8837C8.07442 14.8837 8.55814 14.4 8.55814 13.7674V8.55814H13.7674C14.4 8.55814 14.8837 8.07442 14.8837 7.44186C14.8837 6.8093 14.4 6.32558 13.7674 6.32558Z" fill="black" fill-opacity="0.5"/>
<path d="M13.7674 6.32558H8.55814V1.11628C8.55814 0.483721 8.07442 0 7.44186 0C6.8093 0 6.32558 0.483721 6.32558 1.11628V6.32558H1.11628C0.483721 6.32558 0 6.8093 0 7.44186C0 8.07442 0.483721 8.55814 1.11628 8.55814H6.32558V13.7674C6.32558 14.4 6.8093 14.8837 7.44186 14.8837C8.07442 14.8837 8.55814 14.4 8.55814 13.7674V8.55814H13.7674C14.4 8.55814 14.8837 8.07442 14.8837 7.44186C14.8837 6.8093 14.4 6.32558 13.7674 6.32558Z" fill="#242424"/>
</svg>
