<svg width="300" height="226" viewBox="0 0 300 226" fill="none" xmlns="http://www.w3.org/2000/svg">
<path d="M294.076 127.576C290.249 118.965 284.649 111.168 277.773 104.789C270.897 98.4107 262.709 93.414 253.813 90.26C248.355 88.3109 242.613 87.1415 236.836 86.6099C236.729 38.8398 197.848 0 150.035 0C102.222 0 63.3059 38.8044 63.1996 86.5745C57.2451 87.106 51.2906 88.3109 45.6906 90.4372C36.8298 93.6975 28.7488 98.7651 21.9791 105.108C15.2095 111.487 9.6449 119.177 5.85248 127.789C3.97399 132.112 2.44993 136.613 1.49297 141.255C1.24486 142.424 1.03221 143.594 0.819546 144.728C0.64233 145.897 0.500557 147.067 0.394228 148.272C0.287898 149.441 0.146125 150.646 0.0752391 151.815C0.0397959 152.985 0.00435273 154.119 0.00435273 155.288C-0.101977 164.573 1.74107 174.035 5.39172 182.717C9.00692 191.399 14.4297 199.302 21.1285 205.823C27.8273 212.343 35.8729 217.517 44.6982 220.884C53.4881 224.286 63.0223 225.809 72.2376 225.491C73.3717 225.455 74.5414 225.384 75.6756 225.313L79.0072 224.924C81.2756 224.675 83.3313 224.215 85.4933 223.79C89.6402 222.833 93.6807 221.628 97.3668 220.139C101.124 218.687 104.597 217.021 107.964 215.143C109.666 214.221 111.296 213.229 112.926 212.166C113.742 211.634 114.557 211.103 115.372 210.536C115.762 210.252 116.187 209.969 116.612 209.65L117.25 209.189C117.534 208.977 117.392 209.083 118.491 208.232C118.562 208.161 118.704 208.055 118.491 208.232L119.554 207.524L120.83 206.638L123.311 204.901L127.883 201.605L136.496 195.191C141.068 191.754 145.534 188.352 150 184.914L152.091 186.509L161.448 193.632C167.792 198.381 173.995 203.129 181.509 208.197C181.296 208.055 181.438 208.161 181.509 208.197C182.608 209.047 182.501 208.941 182.749 209.154L183.387 209.614C183.813 209.933 184.238 210.217 184.628 210.5C185.443 211.067 186.258 211.634 187.073 212.131C188.704 213.194 190.334 214.186 192.036 215.107C195.403 216.985 198.912 218.651 202.668 220.104C206.39 221.592 210.395 222.797 214.577 223.754C216.739 224.179 218.795 224.64 221.064 224.888L224.395 225.278C225.529 225.349 226.699 225.42 227.833 225.455C237.084 225.774 246.653 224.215 255.443 220.813C264.269 217.411 272.314 212.201 279.013 205.645C285.747 199.089 291.135 191.187 294.714 182.434C298.33 173.716 300.102 164.219 299.995 154.899C299.889 145.578 297.869 136.081 294.006 127.47L294.076 127.576ZM150.035 7.47737C193.595 7.47737 229.038 42.7734 229.322 86.2555C228.258 86.2555 227.195 86.2555 226.132 86.291C224.608 86.3973 223.084 86.539 221.56 86.7517C221.701 84.6254 221.737 82.4991 221.56 80.4083C221.347 73.746 219.858 67.1546 217.519 60.953C215.18 54.7159 211.742 48.9041 207.631 43.6593C203.484 38.4145 198.593 33.7013 193.063 29.8032C182.076 21.936 168.749 17.081 155.104 16.0887C153.402 15.9116 151.701 15.9824 149.964 15.947C148.228 15.947 146.562 15.947 144.825 16.0887L142.238 16.3368L139.757 16.6203C138.091 16.7975 136.461 17.2228 134.83 17.5417C131.534 18.1796 128.344 19.2427 125.154 20.3413C123.559 20.9083 122.035 21.617 120.511 22.2904C118.987 22.9637 117.463 23.6724 116.01 24.5229C114.557 25.338 113.104 26.1885 111.65 27.039C110.268 27.9604 108.886 28.9172 107.539 29.9095C106.866 30.4056 106.192 30.8663 105.519 31.3979L103.605 33.028C102.364 34.1266 101.053 35.1897 99.8833 36.3592C95.1339 41.0369 91.0225 46.3526 87.6554 52.1644C86.8047 53.6173 86.0959 55.1412 85.3515 56.6296L84.2528 58.8976C83.8984 59.6772 83.6148 60.4923 83.2958 61.2719C82.6933 62.8666 82.0908 64.4613 81.5237 66.0914C81.0629 67.7216 80.6022 69.3872 80.1768 71.0527C79.9642 71.8678 79.7515 72.7183 79.5743 73.5688L79.149 76.0849C78.9009 77.7859 78.6173 79.4869 78.4756 81.1525C78.3692 83.0307 78.2629 84.8735 78.192 86.7517C76.6325 86.5745 75.073 86.3973 73.5135 86.3264C72.6274 86.291 71.7059 86.3264 70.7844 86.3264C71.0325 42.8443 106.511 7.51281 150.071 7.51281L150.035 7.47737ZM219.929 158.974L220.071 159.08C220.071 159.08 220.248 159.222 220.355 159.293C220.567 159.435 220.78 159.576 221.028 159.753C221.489 160.072 221.985 160.356 222.517 160.639C223.509 161.206 224.537 161.703 225.494 162.057C225.884 162.199 226.238 162.34 226.593 162.447C227.053 162.588 227.479 162.73 227.904 162.801C228.755 163.014 229.499 163.085 230.102 163.12C231.2 163.12 232.122 162.978 233.008 162.659C233.894 162.34 234.745 161.773 235.453 161.1C238.395 158.371 238.36 153.268 235.312 150.611C234.567 149.937 233.717 149.406 232.831 149.087C231.945 148.768 231.023 148.626 229.889 148.661C228.967 148.697 228.117 148.98 227.266 149.406C226.415 149.831 225.565 150.504 224.891 151.284C224.572 151.638 224.324 151.993 224.112 152.382C223.722 152.099 223.332 151.851 223.084 151.638L221.064 150.15C220 149.441 218.901 148.661 217.767 147.882C218.122 147.315 218.512 146.783 218.937 146.287C221.666 143.098 225.529 141.113 229.464 140.865C233.681 140.617 237.615 142.035 240.664 144.834C243.712 147.634 245.448 151.532 245.484 155.678C245.555 159.789 243.96 163.758 240.947 166.628C237.97 169.499 234.036 171.023 229.853 170.881C227.727 170.81 225.281 170.314 222.658 169.286C222.552 169.251 222.446 169.18 222.304 169.144H222.269C221.099 168.648 219.894 168.081 218.724 167.443C218.086 167.089 217.413 166.699 216.81 166.309C216.491 166.097 216.208 165.92 215.924 165.707C215.782 165.601 215.641 165.494 215.499 165.424L215.286 165.282C215.286 165.282 215.003 165.069 215.428 165.424C215.109 165.14 214.329 164.608 213.869 164.254C213.337 163.864 212.805 163.474 212.274 163.12C210.927 162.199 209.544 161.277 208.198 160.285C205.433 158.336 202.633 156.281 199.833 154.154C198.025 152.808 196.253 151.461 194.446 150.114L192.638 148.768L191.185 147.669C191.965 146.783 192.78 145.897 193.56 144.976C194.481 143.913 195.367 142.85 196.289 141.751L199.124 143.913C199.939 144.515 200.719 145.118 201.534 145.72C203.767 147.386 206 149.051 208.198 150.681C210.643 152.489 213.053 154.225 215.393 155.82C215.818 156.103 216.243 156.422 216.669 156.706L218.476 158.017C218.972 158.407 219.965 159.045 220.284 159.364C219.646 158.832 219.965 159.08 219.929 159.08V158.974ZM192.071 158.052C195.225 160.427 198.38 162.766 201.499 165.034C203.625 166.593 205.787 168.081 207.879 169.534C208.339 169.853 208.8 170.172 209.261 170.527C209.651 170.846 210.253 171.271 210.608 171.554C210.395 171.377 210.608 171.554 210.679 171.554L210.927 171.731C210.927 171.731 211.281 171.98 211.458 172.121C211.813 172.369 212.203 172.617 212.593 172.865C213.337 173.362 214.152 173.822 214.932 174.283C215.605 174.637 216.243 174.992 216.917 175.311C217.874 175.771 218.831 176.232 219.823 176.586C223.119 177.898 226.451 178.606 229.57 178.713C235.808 178.925 241.94 176.586 246.37 172.228C250.871 167.904 253.352 161.809 253.246 155.572C253.246 149.37 250.517 143.346 245.945 139.129C241.372 134.876 235.205 132.679 228.967 133.069C222.871 133.423 216.988 136.471 212.947 141.255C212.38 141.893 211.884 142.566 211.423 143.275C209.367 141.751 207.241 140.156 205.15 138.597C205.717 137.782 206.319 137.002 206.957 136.223C212.309 129.879 220.213 125.733 228.471 125.273C236.765 124.741 245.165 127.718 251.226 133.388C257.357 138.987 261.008 147.173 261.043 155.466C261.185 163.758 257.818 172.015 251.828 177.791C248.851 180.697 245.307 182.965 241.443 184.454C237.58 185.942 233.433 186.615 229.286 186.509C225.139 186.367 220.957 185.41 216.952 183.851C215.109 183.142 213.337 182.292 211.6 181.335C211.458 181.264 211.281 181.158 211.104 181.087C210.147 180.555 209.225 180.024 208.304 179.421C207.843 179.138 207.418 178.819 206.957 178.536C206.744 178.394 206.532 178.217 206.319 178.075L205.752 177.65L204.653 176.799C204.299 176.516 203.874 176.267 203.519 175.984C200.684 174.07 197.848 172.05 195.048 169.995C191.681 167.55 188.349 165.034 185.018 162.518L184.734 162.305C183.281 161.206 181.792 160.072 180.339 158.974C181.615 157.734 182.891 156.458 184.167 155.147C184.734 154.544 185.301 153.942 185.868 153.375L189.732 156.316C190.511 156.883 191.291 157.485 192.071 158.052ZM188.775 175.063C192.177 177.579 195.615 180.059 199.16 182.434C199.479 182.646 199.798 182.823 200.081 183.072C200.365 183.32 200.648 183.497 200.967 183.78L201.818 184.383C202.066 184.56 202.349 184.737 202.598 184.914C203.129 185.269 203.625 185.623 204.157 185.977C204.901 186.438 205.646 186.899 206.39 187.324C206.709 187.501 207.063 187.714 207.382 187.891C209.58 189.131 211.848 190.195 214.188 191.116C218.866 192.959 223.899 194.128 229.074 194.305C234.248 194.483 239.494 193.632 244.314 191.754C249.17 189.876 253.6 187.005 257.322 183.39C264.836 176.197 269.089 165.778 268.876 155.395C268.841 150.221 267.707 145.011 265.58 140.263C263.454 135.514 260.37 131.226 256.578 127.682C252.785 124.139 248.248 121.41 243.357 119.673C238.466 117.937 233.221 117.193 228.046 117.512C221.241 117.901 214.648 120.24 209.048 124.032C209.296 123.607 209.544 123.217 209.793 122.792L210.714 121.197L211.21 120.347L211.813 119.213C213.053 116.945 214.188 114.606 215.251 112.231C219.22 110.814 223.403 109.963 227.585 109.715C233.752 109.326 240.096 110.211 246.015 112.338C251.899 114.429 257.357 117.76 261.93 121.977C266.502 126.229 270.223 131.368 272.775 137.109C275.327 142.814 276.674 149.087 276.745 155.288C276.816 161.49 275.646 167.798 273.271 173.574C270.897 179.351 267.317 184.631 262.851 188.99C258.385 193.348 253.033 196.786 247.185 199.054C241.337 201.322 235.028 202.35 228.861 202.137C222.658 201.924 216.739 200.542 211.388 198.416C208.694 197.353 206.106 196.148 203.625 194.766C202.81 194.305 201.995 193.845 201.18 193.348C200.79 193.1 200.365 192.852 199.975 192.604C199.372 192.214 198.77 191.825 198.167 191.399C197.884 191.187 197.565 190.974 197.281 190.762L196.82 190.443L196.182 189.946L195.509 189.415C195.296 189.238 195.048 189.096 194.8 188.954C190.547 186.084 186.542 183.178 182.608 180.237C180.268 178.5 177.965 176.764 175.661 175.063L170.805 171.377L168.82 169.853C169.246 169.463 169.706 169.074 170.132 168.684C170.486 168.365 170.841 168.081 171.159 167.762C172.329 166.699 173.499 165.601 174.668 164.502C175.661 165.282 176.689 166.026 177.681 166.806C178.567 167.479 179.453 168.152 180.339 168.826C183.139 170.916 185.939 173.043 188.775 175.133V175.063ZM152.587 173.149L150.071 175.098L148.476 176.338C146.881 177.579 145.286 178.784 143.691 180.024C139.792 183.036 135.858 186.013 131.888 188.99L131.038 189.628L123.382 195.333L118.916 198.558L116.542 200.223L115.301 201.074L114.202 201.783L113.954 201.924C113.954 201.924 114.061 201.854 113.742 202.102C112.855 202.775 112.926 202.704 112.678 202.881L112.111 203.307C111.721 203.59 111.331 203.838 110.977 204.122C110.871 204.192 110.8 204.228 110.693 204.299C110.02 204.759 109.382 205.185 108.744 205.61C107.255 206.567 105.767 207.453 104.243 208.303C101.195 210.004 98.0048 211.528 94.6022 212.839C91.2351 214.186 87.6199 215.249 83.8984 216.135C81.9844 216.489 80.106 216.95 78.0857 217.127L75.1085 217.482C74.1161 217.552 73.0528 217.588 72.0604 217.659C63.8375 217.942 55.4021 216.596 47.6046 213.583C39.807 210.571 32.6475 206 26.6931 200.188C20.7386 194.412 15.9183 187.395 12.7285 179.67C9.50313 171.98 7.87274 163.545 7.94363 155.288C7.94363 147.031 9.78667 138.491 13.1538 130.872C16.5209 123.217 21.4475 116.378 27.4728 110.708C33.4982 105.038 40.6931 100.572 48.5261 97.6665C56.359 94.7252 65.0072 93.5557 73.1591 94.0164C74.9667 94.1227 76.8097 94.2999 78.6173 94.5834C81.3465 94.9732 84.0756 95.5757 86.7338 96.3199C89.6756 97.1704 92.5465 98.1981 95.3111 99.4738C95.9491 99.7573 96.587 100.041 97.225 100.36C100.096 101.777 102.825 103.407 105.412 105.25C109.63 108.227 113.458 111.7 116.79 115.598C117.817 116.803 118.774 118.043 119.696 119.319C118.916 119.992 118.172 120.63 117.392 121.268C116.825 121.729 116.258 122.189 115.726 122.65C115.195 123.075 114.734 123.465 114.344 123.749L113.671 124.28C112.785 123.04 111.863 121.835 110.871 120.701C107.504 116.767 103.534 113.33 99.1744 110.495C97.4377 109.361 95.6301 108.333 93.7516 107.376C92.1566 106.561 90.4908 105.853 88.7895 105.215C85.9541 104.152 83.0123 103.337 80.0351 102.77C77.6249 102.309 75.1794 101.99 72.7338 101.848C65.5743 101.458 58.0603 102.451 51.2198 105.038C44.3438 107.589 38.0703 111.487 32.7893 116.449C27.5083 121.41 23.1842 127.399 20.2779 134.097C17.3361 140.759 15.7411 148.165 15.7411 155.395C15.6702 162.624 17.088 169.96 19.9234 176.693C22.7234 183.426 26.9412 189.557 32.1513 194.624C37.3615 199.692 43.5995 203.696 50.44 206.319C57.2451 208.941 64.6173 210.111 71.8123 209.898C79.0072 209.65 85.7769 208.02 91.8022 205.645C94.8503 204.476 97.7212 203.094 100.486 201.535C101.868 200.755 103.215 199.975 104.562 199.089C104.845 198.912 105.129 198.7 105.412 198.522C105.802 198.274 106.157 198.026 106.547 197.743C106.866 197.53 107.22 197.282 107.574 197.034L108.071 196.68L108.921 196.042C109.24 195.794 109.169 195.865 109.347 195.687C109.488 195.581 109.666 195.475 109.807 195.368C115.195 191.754 120.086 188.104 124.906 184.489C125.686 183.922 126.466 183.32 127.21 182.753C130.364 180.378 133.483 178.004 136.602 175.63C136.78 175.488 136.957 175.346 137.134 175.24C139.296 173.61 141.423 171.944 143.549 170.314L143.726 170.172L147.838 166.983C148.582 166.416 149.291 165.849 149.964 165.317C150.78 164.644 151.559 164.006 152.375 163.368C153.651 162.305 154.927 161.242 156.167 160.143C157.691 158.832 159.215 157.485 160.739 156.139L160.81 156.068C161.271 155.678 161.696 155.253 162.157 154.828C164.106 153.056 166.02 151.248 167.934 149.406C168.324 149.016 168.714 148.661 169.104 148.272C170.592 146.819 172.046 145.33 173.499 143.842C174.562 142.779 175.59 141.68 176.618 140.582C177.362 139.767 178.106 138.952 178.851 138.136C179.205 137.747 179.524 137.357 179.879 137.002C181.261 135.443 182.643 133.884 183.99 132.254C185.62 130.269 187.251 128.249 188.846 126.123C189.696 124.989 190.547 123.855 191.362 122.686L193.099 120.169L194.765 117.583C195.332 116.732 195.863 115.811 196.395 114.889L197.21 113.507L197.281 113.365L197.6 112.798L198.061 111.912C200.081 108.262 201.782 104.4 203.129 100.502C203.484 99.4384 203.838 98.3398 204.157 97.2767C204.76 95.1859 205.22 93.0596 205.539 90.8979C206 87.8502 206.213 84.8026 206.106 81.7195C205.965 76.4747 204.831 71.3362 202.952 66.4458C201.109 61.5554 198.38 57.0194 195.119 52.944C191.858 48.8687 187.96 45.2186 183.635 42.2418C175.023 36.1465 164.638 32.461 154.005 31.7168C152.694 31.5751 151.347 31.6459 150 31.6105C148.653 31.6105 147.342 31.5751 145.995 31.7168C144.648 31.8586 143.301 32.0003 142.025 32.1421C140.714 32.2484 139.438 32.6027 138.162 32.8508C135.575 33.3469 133.094 34.1975 130.577 35.0125C129.337 35.4378 128.167 36.0048 126.962 36.5363C125.757 37.0679 124.552 37.5995 123.418 38.2728C122.283 38.9107 121.149 39.5486 120.015 40.2219C118.916 40.9306 117.853 41.7103 116.79 42.4544C116.258 42.8443 115.726 43.1986 115.195 43.6239L113.706 44.8997C112.714 45.7502 111.721 46.6007 110.8 47.5221C107.078 51.2076 103.853 55.3538 101.23 59.8898C100.557 61.0238 100.025 62.2287 99.4225 63.3982L98.5719 65.1701C98.3238 65.7725 98.0757 66.4104 97.8276 67.0128C97.3668 68.2531 96.8706 69.4935 96.4453 70.7692C96.0908 72.045 95.7364 73.3207 95.4174 74.6319C95.2756 75.2698 95.063 75.9077 94.9566 76.581L94.6377 78.5655C94.425 79.8767 94.2123 81.1879 94.106 82.5346C93.9642 85.1924 93.7161 87.8502 93.9642 90.5081V90.6144C91.3769 89.6576 88.7541 88.8779 86.0959 88.2401C86.0959 86.1138 86.2376 83.9875 86.344 81.8967C86.4857 80.3729 86.7338 78.8845 86.9465 77.3607L87.3009 75.0926C87.4427 74.3484 87.6554 73.6043 87.8326 72.8601C88.187 71.3717 88.6123 69.9187 89.0022 68.4658C89.4984 67.0128 90.03 65.5953 90.5617 64.1778C90.8452 63.4691 91.0933 62.7603 91.4123 62.0515L92.3693 60.0316C93.0427 58.685 93.6807 57.3383 94.425 56.0626C97.4377 50.8886 101.088 46.14 105.342 41.9583C106.405 40.8952 107.539 39.9384 108.673 38.9815L110.374 37.5286C110.942 37.0679 111.58 36.6427 112.182 36.2174C113.387 35.3669 114.628 34.481 115.868 33.6659C117.144 32.8863 118.455 32.1421 119.767 31.4333C121.043 30.6891 122.425 30.0512 123.772 29.4488C125.154 28.8463 126.501 28.2085 127.919 27.7123C130.754 26.7555 133.59 25.7987 136.531 25.2317C137.985 24.9482 139.438 24.5584 140.926 24.4166C142.38 24.2394 143.904 24.0622 145.463 23.9205C147.023 23.7433 148.511 23.8142 150.035 23.7787C151.559 23.7787 153.083 23.7433 154.608 23.9205C166.765 24.771 178.603 29.059 188.385 36.0402C193.311 39.4777 197.706 43.6593 201.428 48.3371C205.114 53.0149 208.198 58.1888 210.289 63.7526C213.301 71.5489 214.436 79.9831 213.727 88.3464C213.479 91.1814 213.018 94.0164 212.38 96.816C212.203 97.4893 212.061 98.1626 211.848 98.8359C211.175 101.352 210.324 103.797 209.367 106.242C208.091 109.432 206.638 112.586 204.972 115.633L204.441 116.626L203.98 117.405L203.236 118.681L203.129 118.894C202.562 119.886 201.96 120.878 201.357 121.8L199.549 124.564L197.706 127.222C196.82 128.497 195.899 129.702 194.977 130.907C193.382 133.033 191.787 135.053 190.157 137.038C189.023 138.42 187.853 139.767 186.719 141.078C186.152 141.716 185.62 142.354 185.053 142.956C184.132 143.948 183.246 144.976 182.324 145.933C181.473 146.854 180.587 147.776 179.701 148.661C178.673 149.725 177.646 150.788 176.582 151.815C175.767 152.63 174.952 153.446 174.137 154.225C172.329 155.962 170.522 157.663 168.714 159.364C168.608 159.47 168.501 159.576 168.395 159.647C167.58 160.391 166.765 161.171 165.949 161.915C164.815 162.943 163.646 163.935 162.511 164.963C162.228 165.211 161.909 165.494 161.625 165.742C160.208 166.947 158.79 168.152 157.372 169.357C157.053 169.605 156.734 169.853 156.451 170.137C155.281 171.094 154.076 172.086 152.658 173.184L152.587 173.149ZM53.7717 172.263C58.2021 176.586 64.3337 178.925 70.5363 178.713C73.6553 178.606 76.987 177.898 80.2832 176.586C81.4528 176.126 82.6224 175.594 83.7566 174.992C84.1465 174.779 84.5718 174.602 84.9617 174.354C85.0326 174.318 85.1034 174.283 85.1389 174.248C85.9186 173.822 86.7338 173.326 87.4781 172.83C87.868 172.582 88.2224 172.334 88.6123 172.086C88.7895 171.944 88.9668 171.838 89.144 171.696L89.3921 171.519C89.3921 171.519 89.6402 171.306 89.463 171.519C89.7819 171.235 90.3845 170.81 90.8098 170.491C91.2706 170.137 91.7313 169.853 92.1921 169.499C94.4604 167.975 96.7642 166.345 99.0681 164.679C102.081 162.518 105.093 160.25 108.106 157.982L108.39 157.769C109.843 156.67 111.296 155.572 112.749 154.473C113.777 153.694 114.805 152.914 115.833 152.134C116.896 151.319 117.995 150.504 119.058 149.689C120.369 148.697 121.681 147.669 122.992 146.677C123.524 146.252 124.091 145.826 124.623 145.437L125.296 144.905L128.663 142.318C129.053 142.035 129.443 141.68 129.833 141.361C130.364 140.936 130.931 140.475 131.463 140.015C131.747 139.767 132.03 139.554 132.314 139.306C133.696 138.172 135.043 137.002 136.39 135.798C136.744 135.514 137.063 135.195 137.418 134.876C138.197 134.203 138.942 133.53 139.721 132.856C140.891 131.793 142.061 130.695 143.23 129.631C145.144 127.859 146.987 126.017 148.83 124.174C150.461 122.544 152.091 120.878 153.651 119.213C153.863 119 154.04 118.787 154.253 118.575C156.025 116.661 157.762 114.712 159.428 112.728C161.129 110.708 162.724 108.652 164.284 106.597C164.78 105.959 165.276 105.286 165.737 104.648L167.048 102.77L168.253 100.891C168.678 100.253 169.033 99.6156 169.423 99.0131L169.99 98.0563L170.273 97.5956L170.486 97.2058C171.585 95.2213 172.542 93.1305 173.251 90.9333C173.96 88.7716 174.42 86.5036 174.385 84.2001C174.385 81.8967 173.853 79.6641 173.038 77.5378C172.223 75.4116 170.982 73.4625 169.494 71.6906C168.041 69.9542 166.304 68.3949 164.39 67.1546C160.597 64.6031 156.132 63.0792 151.559 62.7957C150.992 62.6894 150.425 62.7957 149.858 62.7957C149.291 62.7957 148.724 62.7249 148.157 62.8312C147.59 62.902 147.058 62.9729 146.456 63.0084C145.853 63.0084 145.321 63.2564 144.754 63.3273C143.585 63.5045 142.521 63.9297 141.387 64.2841C140.82 64.4613 140.324 64.7448 139.792 64.9574C139.261 65.1701 138.729 65.3827 138.233 65.7371L136.709 66.5876L135.291 67.6153C135.043 67.7925 134.795 67.9342 134.582 68.1114L133.909 68.6784C133.483 69.0682 132.987 69.4226 132.597 69.8478C130.931 71.5134 129.514 73.3562 128.309 75.3761C128.025 75.8723 127.777 76.4393 127.529 76.9354L127.139 77.715C127.033 77.9631 126.962 78.2466 126.856 78.5301L126.253 80.1248C126.111 80.6918 125.969 81.2234 125.828 81.7904C125.757 82.0739 125.65 82.3219 125.615 82.6054L125.509 83.456C125.438 84.023 125.296 84.59 125.261 85.157C125.261 85.724 125.225 86.291 125.19 86.858C125.19 87.1415 125.119 87.425 125.154 87.7085V88.559C125.331 90.827 125.899 93.0596 126.678 95.2213L127.387 96.9223C127.635 97.5248 127.954 98.1272 128.238 98.7296C128.486 99.3321 128.876 99.9345 129.195 100.537C129.514 101.139 129.868 101.742 130.258 102.344C131.144 103.833 132.172 105.356 133.271 106.845C131.463 108.688 129.549 110.53 127.635 112.338C126.182 110.389 124.835 108.44 123.595 106.384C121.929 103.62 120.44 100.75 119.342 97.8791C118.278 95.0087 117.569 92.0319 117.392 88.9842L117.321 87.8502C117.321 87.4604 117.321 87.106 117.357 86.7162L117.463 84.4482C117.534 83.704 117.711 82.9598 117.817 82.1802L117.995 81.0462C118.066 80.6564 118.172 80.302 118.278 79.9476L118.845 77.7505L119.661 75.6242C119.802 75.2698 119.909 74.9154 120.086 74.5611L120.618 73.5334C120.972 72.8601 121.255 72.1513 121.645 71.478C123.205 68.8556 125.083 66.4104 127.245 64.2487C127.777 63.7171 128.38 63.221 128.947 62.7249L129.797 61.9807C130.081 61.7326 130.435 61.52 130.719 61.3073L132.597 59.9961L134.582 58.8621C135.22 58.4369 135.929 58.1534 136.638 57.8699C137.347 57.5864 138.02 57.1966 138.764 56.9839C140.218 56.5232 141.671 55.9917 143.159 55.7436C144.648 55.3538 146.172 55.2475 147.696 55.0703C148.44 54.9285 149.22 55.0703 149.964 54.9994C150.709 54.9994 151.489 54.9285 152.233 55.0349C158.294 55.4247 164.284 57.4801 169.316 60.8467C171.868 62.5122 174.172 64.5676 176.122 66.8711C178.071 69.1745 179.737 71.7969 180.835 74.6319C181.899 77.467 182.608 80.4792 182.608 83.5268C182.643 86.5745 182.041 89.5867 181.084 92.4926C180.127 95.3985 178.886 98.1626 177.398 100.82C175.873 103.585 174.101 106.42 172.187 109.113C171.549 109.999 170.876 110.885 170.203 111.771C168.643 113.862 167.013 115.882 165.347 117.901C163.681 119.886 161.944 121.835 160.172 123.749C159.924 123.997 159.711 124.28 159.463 124.528C157.939 126.158 156.38 127.789 154.785 129.383C152.942 131.226 151.063 133.069 149.185 134.841C147.802 136.116 146.456 137.392 145.038 138.668C144.471 139.164 143.939 139.66 143.372 140.156C141.777 141.574 140.147 142.991 138.516 144.373C138.162 144.692 137.772 145.011 137.418 145.295C136.142 146.358 134.83 147.457 133.519 148.449L131.392 150.079L131.18 150.256L129.443 151.603C127.919 152.772 126.395 153.942 124.871 155.111C124.516 155.359 124.197 155.643 123.843 155.891C122.071 157.237 120.299 158.584 118.562 159.931C117.569 160.675 116.577 161.454 115.585 162.199C114.769 162.801 113.954 163.439 113.174 164.041C110.729 165.884 108.283 167.692 105.838 169.499C102.825 171.731 99.7769 173.929 96.6934 175.984C96.3035 176.267 95.9136 176.48 95.5592 176.799L94.4604 177.65L93.8934 178.075C93.6807 178.217 93.468 178.394 93.2554 178.536C92.8301 178.854 92.3693 179.138 91.9085 179.421C91.2351 179.882 90.4908 180.272 89.7819 180.697C89.6402 180.768 89.4984 180.874 89.3921 180.945C89.3212 180.981 89.2149 181.052 89.144 181.087C87.2655 182.15 85.3161 183.072 83.2958 183.851C79.3262 185.446 75.1439 186.367 70.9971 186.509C66.8502 186.615 62.7034 185.977 58.8755 184.489C55.0122 183.001 51.4679 180.733 48.5261 177.862C42.5716 172.121 39.1336 163.9 39.24 155.643C39.24 147.386 42.8197 139.235 48.9514 133.6C51.9641 130.765 55.5438 128.533 59.4071 127.115C63.2704 125.662 67.4173 125.131 71.5641 125.308C79.8224 125.733 87.7971 129.702 93.1845 135.975C93.8934 136.79 94.5668 137.676 95.1693 138.562C94.9567 138.739 94.7085 138.916 94.4959 139.093L88.8959 143.239C88.3997 142.495 87.868 141.751 87.2655 141.042C83.225 136.329 77.3414 133.388 71.1743 133.069C68.0553 132.927 65.0072 133.281 62.1363 134.38C59.2654 135.443 56.6071 137.109 54.3388 139.235C52.0704 141.361 50.1919 143.913 48.9868 146.748C47.7463 149.583 47.1083 152.56 47.1083 155.678C47.0375 161.88 49.5539 167.94 54.0198 172.228L53.7717 172.263ZM122.319 127.328C122.85 126.903 123.347 126.442 123.878 126.017C124.764 125.273 125.65 124.493 126.572 123.713C127.493 122.934 128.38 122.119 129.266 121.304C129.478 121.126 129.656 120.949 129.868 120.772C130.719 120.028 131.534 119.248 132.349 118.468C134.263 116.661 136.142 114.854 137.949 113.011C139.402 111.558 140.856 110.07 142.238 108.581C142.628 108.156 142.982 107.766 143.372 107.341C145.073 105.463 146.704 103.585 148.263 101.706C148.263 101.706 148.405 101.529 148.476 101.458L148.547 101.387C149.291 100.466 150.177 99.3675 150.851 98.517C151.595 97.5602 152.304 96.6034 152.942 95.682L153.402 95.0087L154.005 94.1227L154.997 92.5989C155.352 92.0673 155.635 91.6066 155.919 91.1105L156.344 90.3663L156.557 90.0474L156.628 89.9056C157.018 89.2323 157.301 88.5236 157.549 87.8148C158.046 86.3619 158.046 84.7672 157.478 83.3496C156.911 81.9321 155.883 80.7272 154.608 79.9122C153.332 79.0617 151.843 78.5301 150.319 78.4592C150.142 78.3884 149.929 78.4947 149.752 78.4592C149.575 78.4592 149.362 78.3884 149.185 78.4592C149.043 78.4947 148.866 78.5301 148.618 78.5301C148.37 78.4947 148.192 78.6364 147.98 78.6719C147.519 78.6719 147.164 78.9199 146.739 78.9908C146.526 79.0262 146.349 79.2034 146.137 79.2743C145.924 79.3452 145.711 79.416 145.534 79.5578C145.357 79.6641 145.144 79.7704 144.967 79.8767C144.79 80.0185 144.613 80.1602 144.435 80.2666C144.329 80.3374 144.223 80.3729 144.152 80.4437C144.081 80.5146 144.01 80.6209 143.904 80.6918C143.762 80.869 143.549 80.9399 143.372 81.1171C142.734 81.7549 142.202 82.4637 141.742 83.2079C141.635 83.3851 141.564 83.5977 141.458 83.8103C141.423 83.9166 141.352 83.9875 141.281 84.0938C141.245 84.2001 141.245 84.271 141.21 84.3773C141.175 84.5545 141.068 84.7317 140.997 84.9089C140.997 85.0861 140.926 85.2987 140.891 85.4759C140.891 85.5822 140.82 85.6531 140.785 85.7594C140.785 85.8657 140.785 85.9366 140.785 86.0429C140.785 86.2201 140.714 86.3973 140.678 86.6099C140.678 86.7871 140.678 86.9997 140.678 87.1769C140.678 87.2478 140.678 87.3541 140.678 87.425C140.678 87.425 140.678 87.6376 140.678 87.7439C140.714 88.4881 140.891 89.2323 141.139 89.9765C141.175 90.0828 141.245 90.1537 141.281 90.26L141.458 90.7561L141.99 91.8547C142.061 92.0319 142.167 92.2445 142.273 92.4571C142.38 92.6698 142.521 92.8824 142.628 93.095L142.982 93.7329L143.407 94.4062C143.514 94.5834 143.337 95.1859 143.443 95.3985C141.919 97.3121 140.288 99.2612 138.516 101.21C137.878 100.289 137.276 99.3675 136.744 98.4461C136.39 97.9146 136.106 97.383 135.823 96.8869C135.539 96.3907 135.22 95.8592 135.007 95.363C134.795 94.8669 134.511 94.3708 134.299 93.9101L134.015 93.2368L133.767 92.6698C133.271 91.2168 132.881 89.7639 132.81 88.2401V87.673C132.775 87.4959 132.81 87.2832 132.81 87.106C132.81 86.7162 132.845 86.3619 132.845 85.972C132.881 85.5822 132.987 85.2278 133.023 84.838L133.094 84.271C133.094 84.0938 133.2 83.9166 133.235 83.7395C133.342 83.3851 133.448 82.9953 133.519 82.6409C133.661 82.2865 133.802 81.9321 133.944 81.5778C134.015 81.4006 134.05 81.2234 134.121 81.0462L134.405 80.5146C134.582 80.1602 134.724 79.7704 134.937 79.4515C135.752 78.0694 136.744 76.7937 137.878 75.6242C138.162 75.3407 138.516 75.0926 138.8 74.8446L139.261 74.4193C139.261 74.4193 139.58 74.2067 139.757 74.0649C140.076 73.8523 140.395 73.6042 140.749 73.3562C141.104 73.179 141.458 72.9664 141.813 72.7892C142.132 72.5411 142.521 72.4348 142.876 72.2576C143.266 72.1159 143.585 71.9032 143.975 71.7969C144.754 71.5843 145.463 71.2654 146.278 71.159C146.668 71.0882 147.058 70.911 147.448 70.911C147.873 70.911 148.228 70.8401 148.582 70.7692C148.937 70.6629 149.326 70.7692 149.716 70.7692C150.106 70.7692 150.496 70.6984 150.851 70.7692C153.899 70.9464 156.876 71.9741 159.392 73.6751C160.668 74.4902 161.802 75.5179 162.795 76.6873C163.787 77.8568 164.602 79.1325 165.134 80.5855C165.63 82.003 166.02 83.4914 166.02 85.0507C166.02 86.5745 165.737 88.0983 165.276 89.5158C164.815 90.9688 164.177 92.3508 163.433 93.6975L163.291 93.9455L163.043 94.3353L162.547 95.1859C162.228 95.7529 161.909 96.3199 161.519 96.8869L160.42 98.5879L159.215 100.324C159.002 100.608 158.79 100.927 158.577 101.21C157.089 103.301 155.458 105.356 153.757 107.447C152.127 109.432 150.39 111.381 148.582 113.33C148.334 113.578 148.121 113.862 147.873 114.11C146.349 115.74 144.79 117.37 143.159 118.965C141.316 120.807 139.473 122.615 137.559 124.387C136.496 125.379 135.468 126.336 134.405 127.292C134.086 127.576 133.767 127.859 133.448 128.143C132.881 128.639 132.349 129.135 131.782 129.596C130.293 130.907 128.769 132.218 127.245 133.494H127.21C126.749 133.919 126.288 134.274 125.828 134.664C125.119 135.266 124.41 135.833 123.772 136.294L120.759 138.597L119.731 139.377L119.625 139.483C117.817 140.901 115.974 142.283 114.167 143.665C113.919 143.877 113.671 144.055 113.387 144.267C111.367 145.791 109.382 147.315 107.362 148.839L107.114 149.016C105.944 149.902 104.739 150.823 103.569 151.709C102.435 152.56 101.301 153.41 100.167 154.261C97.4022 156.316 94.6731 158.336 91.9794 160.25C90.5262 161.277 89.1085 162.27 87.6908 163.226C87.1591 163.616 86.6275 163.971 86.0959 164.36C85.6351 164.715 84.8553 165.246 84.5364 165.53C84.9617 165.175 84.7136 165.388 84.6781 165.388L84.4655 165.53C84.4655 165.53 84.2174 165.707 84.0401 165.813C83.7566 166.026 83.4731 166.203 83.1541 166.416C82.5515 166.806 81.8781 167.195 81.2401 167.55C80.8148 167.798 80.4249 167.975 79.9996 168.188C79.3616 168.507 78.7591 168.79 78.1211 169.074C77.8376 169.18 77.5895 169.322 77.3059 169.428C74.6831 170.456 72.2376 170.987 70.1464 171.023C68.0553 171.058 66.035 170.739 64.1565 170.03C62.278 169.322 60.5413 168.188 59.0881 166.77C56.1464 163.9 54.4805 160.002 54.5514 155.855C54.5514 153.8 54.9767 151.886 55.7565 150.044C56.5362 148.201 57.8122 146.5 59.3008 145.082C60.8249 143.665 62.597 142.566 64.4755 141.857C66.354 141.113 68.2679 140.901 70.3945 141.007C74.4705 141.22 78.2984 143.133 80.992 146.252C81.4528 146.783 81.8781 147.386 82.2325 147.988L80.7794 149.016L79.9642 149.583L78.9009 150.292L76.8806 151.78C76.6325 151.993 76.2426 152.241 75.8882 152.489C75.6756 152.063 75.392 151.674 75.073 151.319C72.4148 148.272 67.63 147.846 64.6882 150.788C63.9439 151.496 63.2704 152.347 62.916 153.233C62.5616 154.154 62.3489 154.899 62.3489 155.962C62.3489 157.025 62.5261 157.911 62.8806 158.797C63.235 159.683 63.8021 160.498 64.5109 161.206C65.2198 161.915 66.0705 162.447 66.9565 162.766C67.8426 163.12 68.7641 163.262 69.8629 163.226C70.0046 163.226 70.1464 163.226 70.2882 163.226C70.4654 163.226 70.6072 163.156 70.7844 163.156C71.1034 163.156 71.4933 163.014 71.8477 162.978C72.0249 162.943 72.2376 162.872 72.4148 162.837C73.0528 162.659 73.7262 162.482 74.4705 162.163C74.6123 162.128 74.754 162.057 74.8958 161.986C75.7464 161.632 76.5971 161.242 77.4832 160.746C77.9794 160.462 78.511 160.179 78.9718 159.86C79.2199 159.718 79.4325 159.576 79.6452 159.399C79.7515 159.328 79.8579 159.257 79.9287 159.186L80.0705 159.08C80.0705 159.08 80.3541 158.832 79.7161 159.364C80.0351 159.045 81.0275 158.407 81.5237 158.017L83.3313 156.706C83.7566 156.422 84.1819 156.103 84.6427 155.82C86.9465 154.225 89.3566 152.489 91.8022 150.717C93.9997 149.087 96.2326 147.421 98.4655 145.756L98.8908 145.437C99.8833 144.692 100.876 143.913 101.904 143.169C102.931 142.389 103.924 141.645 104.952 140.865C106.015 140.05 107.078 139.235 108.142 138.455C109.205 137.64 110.268 136.825 111.296 136.01C112.324 135.231 113.316 134.451 114.344 133.671C114.557 133.494 114.769 133.352 114.982 133.175L117.605 131.155L118.987 130.092C119.448 129.738 119.98 129.312 120.511 128.887C121.078 128.426 121.681 127.93 122.248 127.47L122.319 127.328ZM103.286 132.254C102.577 132.785 101.868 133.317 101.195 133.848C100.486 132.821 99.706 131.829 98.9263 130.907C95.6655 127.08 91.625 123.961 87.1592 121.693C82.4098 119.248 77.1287 117.795 71.7768 117.512C66.6375 117.228 61.3565 117.937 56.5008 119.78C51.6451 121.587 47.1438 124.387 43.3868 127.93C35.7665 134.947 31.2298 145.224 31.2298 155.607C31.1944 160.781 32.1868 165.955 34.1716 170.739C36.1564 175.523 39.1336 179.882 42.8552 183.497C46.5767 187.111 51.0071 189.946 55.8628 191.825C60.6831 193.703 65.9287 194.518 71.0679 194.376C76.2426 194.199 81.2756 193.03 85.9541 191.187C88.2933 190.265 90.5617 189.202 92.7592 187.997C93.3972 187.643 93.9997 187.289 94.6022 186.934C95.063 186.651 95.5237 186.367 95.9491 186.084C96.4807 185.765 97.0124 185.41 97.5086 185.056C97.7567 184.879 98.0402 184.702 98.2883 184.524L99.1389 183.922C99.4579 183.674 99.706 183.461 100.025 183.213C100.309 182.965 100.628 182.788 100.947 182.575C104.81 179.988 108.531 177.26 112.217 174.531C114.061 173.149 115.904 171.767 117.747 170.42C119.412 169.18 121.043 167.904 122.673 166.664C123.276 166.203 123.843 165.778 124.445 165.317C126.572 163.687 128.699 162.092 130.825 160.462C131.038 160.285 131.25 160.143 131.463 160.002C132.349 159.328 133.271 158.619 134.157 157.946L137.169 155.607L138.233 154.792C138.623 154.509 138.977 154.19 139.367 153.906C140.359 153.091 141.352 152.312 142.344 151.496C142.699 151.213 143.053 150.894 143.407 150.611C145.428 148.91 147.413 147.173 149.397 145.401C149.681 145.153 149.964 144.905 150.248 144.657C151.914 143.133 153.58 141.609 155.21 140.05C157.124 138.243 159.002 136.4 160.846 134.557C162.299 133.069 163.752 131.58 165.17 130.057C165.524 129.667 165.878 129.277 166.233 128.887L166.41 128.675C168.111 126.832 169.777 124.954 171.408 123.005C173.073 121.02 174.704 118.965 176.263 116.909C177.043 115.882 177.823 114.854 178.567 113.826C180.623 110.92 182.501 107.943 184.273 104.719C184.522 104.293 184.734 103.868 184.947 103.407C186.471 100.466 187.782 97.4184 188.775 94.2645C189.909 90.6498 190.582 86.8934 190.511 83.1016C190.476 79.3097 189.625 75.5533 188.279 72.045C186.932 68.5012 184.876 65.2409 182.466 62.335C180.056 59.4291 177.22 56.8422 174.03 54.7514C167.757 50.4634 160.314 47.9119 152.729 47.4157C151.772 47.3094 150.815 47.4157 149.894 47.3449C148.937 47.3449 147.98 47.3094 147.058 47.4157C145.144 47.6284 143.266 47.7701 141.423 48.2662C139.544 48.5852 137.772 49.2585 135.964 49.8255C135.078 50.109 134.228 50.5697 133.342 50.9241C132.456 51.3139 131.605 51.6683 130.79 52.1644L128.309 53.5819L125.969 55.212C125.58 55.4956 125.19 55.7436 124.835 56.0626L123.772 56.9839C123.063 57.6218 122.319 58.1888 121.645 58.8621C118.952 61.52 116.612 64.5322 114.698 67.8279C111.012 74.4193 108.992 82.1093 109.417 89.693C109.63 93.414 110.481 97.0641 111.757 100.537C108.709 98.2335 105.483 96.1781 102.081 94.4062C101.868 92.9887 101.691 91.5712 101.62 90.1537C101.088 81.0462 103.498 71.7969 107.929 63.9297C110.197 60.0316 112.962 56.4524 116.187 53.263C116.967 52.4479 117.853 51.7391 118.704 50.995L119.98 49.8964C120.405 49.542 120.901 49.2231 121.326 48.9041C122.248 48.2662 123.169 47.5929 124.091 46.955L127.033 45.2895C127.99 44.7225 129.018 44.2618 130.081 43.8011C131.109 43.3758 132.137 42.8443 133.2 42.4899C135.362 41.7811 137.488 41.0369 139.721 40.6117C141.919 40.0447 144.152 39.8675 146.456 39.6194C147.59 39.4777 148.724 39.5486 149.894 39.5131C151.028 39.5131 152.162 39.4422 153.296 39.584C162.405 40.2219 171.301 43.3404 178.78 48.5143C182.537 51.0658 185.904 54.1489 188.739 57.6573C191.575 61.1656 193.985 65.0283 195.58 69.2454C197.175 73.4625 198.167 77.8922 198.274 82.4283C198.415 86.7162 197.777 91.0042 196.608 95.1859C196.537 95.3985 196.501 95.5757 196.43 95.7883C195.119 100.112 193.311 104.364 191.114 108.333L190.724 109.077L190.334 109.715L189.59 110.991C189.094 111.842 188.598 112.692 188.066 113.472L186.506 115.882L184.876 118.22C184.096 119.319 183.281 120.418 182.466 121.481C180.871 123.572 179.276 125.627 177.61 127.611C176.122 129.383 174.597 131.12 173.073 132.821C172.861 133.033 172.648 133.281 172.471 133.494C171.939 134.097 171.408 134.699 170.841 135.266C169.6 136.613 168.324 137.924 167.084 139.2C165.311 141.007 163.539 142.743 161.732 144.48L161.484 144.728C159.57 146.571 157.656 148.378 155.671 150.15L155.458 150.327C153.544 152.063 151.63 153.729 149.645 155.395C148.866 156.068 148.121 156.706 147.342 157.344C146.066 158.371 144.825 159.399 143.478 160.498C143.337 160.604 143.195 160.71 143.053 160.852L138.977 164.006C138.375 164.502 137.772 164.963 137.169 165.424C135.043 167.054 132.916 168.684 130.79 170.314C130.471 170.562 130.152 170.81 129.797 171.058C127.387 172.901 124.977 174.708 122.567 176.551C121.291 177.508 119.98 178.465 118.704 179.457C114.45 182.646 110.091 185.836 105.483 188.954C105.271 189.131 105.023 189.238 104.774 189.415L104.101 189.946L103.463 190.443L103.002 190.762C102.719 190.974 102.4 191.187 102.116 191.399C101.514 191.825 100.947 192.214 100.344 192.604C100.273 192.64 100.202 192.711 100.096 192.746C98.9617 193.455 97.8276 194.128 96.6934 194.766C94.2123 196.148 91.6604 197.388 88.9668 198.416C83.6148 200.542 77.7313 201.924 71.5287 202.137C65.3616 202.35 59.0527 201.357 53.24 199.089C47.3919 196.857 42.0754 193.419 37.6096 189.096C33.1437 184.773 29.564 179.528 27.1538 173.751C24.7437 168.01 23.5386 161.738 23.6095 155.536C23.6095 149.335 24.9918 143.027 27.5083 137.321C29.9893 131.58 33.7108 126.477 38.2476 122.225C42.7843 117.972 48.1362 114.641 54.0198 112.444C59.8679 110.247 66.2831 109.396 72.4148 109.715C75.8882 109.893 79.3616 110.495 82.7288 111.487C85.3515 112.267 87.9389 113.224 90.3845 114.464C91.3414 114.925 92.2984 115.456 93.2199 116.023C97.6858 118.646 101.691 121.977 105.058 125.875C105.944 126.938 106.795 128.037 107.61 129.171C106.228 130.234 104.881 131.262 103.498 132.325L103.286 132.254ZM287.59 179.528C284.4 187.289 279.616 194.341 273.661 200.117C267.707 205.929 260.547 210.536 252.714 213.583C244.917 216.631 236.446 217.978 228.188 217.694C227.16 217.659 226.132 217.623 225.104 217.552L222.127 217.198C220.107 216.985 218.228 216.56 216.314 216.206C212.557 215.355 208.942 214.257 205.575 212.91C202.172 211.599 198.982 210.075 195.899 208.339C194.375 207.488 192.851 206.602 191.362 205.61C191.114 205.468 190.866 205.256 190.618 205.114C190.122 204.795 189.625 204.476 189.129 204.122C188.775 203.874 188.385 203.59 187.995 203.307L187.428 202.881C187.18 202.704 187.251 202.775 186.365 202.102C186.046 201.854 186.294 202.066 186.152 201.924C186.081 201.854 186.01 201.818 185.904 201.783C180.268 197.991 175.271 194.27 170.38 190.62C168.962 189.557 167.544 188.494 166.127 187.43L156.805 180.343L156.38 179.988L157.301 179.28C159.215 177.791 160.668 176.586 162.228 175.311C162.37 175.204 162.511 175.063 162.653 174.956L163.929 175.949L170.841 181.193C172.684 182.575 174.527 183.957 176.405 185.375C180.835 188.671 185.337 192.002 190.263 195.333C190.405 195.439 190.582 195.546 190.724 195.652C190.937 195.829 190.83 195.758 191.149 196.006L192 196.644L192.496 196.999C192.851 197.247 193.17 197.495 193.524 197.707C194.198 198.168 194.871 198.629 195.544 199.054C195.615 199.089 195.686 199.16 195.757 199.196C197.033 200.011 198.309 200.79 199.62 201.499C202.385 203.058 205.291 204.405 208.339 205.61C214.4 207.984 221.17 209.614 228.4 209.862C235.595 210.111 243.003 208.906 249.808 206.248C256.648 203.625 262.886 199.586 268.097 194.482C273.307 189.415 277.489 183.249 280.289 176.48C283.089 169.712 284.471 162.376 284.365 155.111C284.294 147.846 282.699 140.511 279.722 133.848C276.745 127.151 272.421 121.126 267.069 116.165C261.717 111.204 255.373 107.341 248.461 104.896C241.585 102.415 234.142 101.387 226.947 101.848C224.112 102.025 221.276 102.415 218.476 103.053C218.76 102.132 219.043 101.175 219.291 100.253C219.717 98.6233 220.142 96.9932 220.426 95.3276C220.426 95.115 220.496 94.9024 220.532 94.6897C222.517 94.3708 224.501 94.1582 226.486 94.0164C234.709 93.5203 243.215 94.6897 251.084 97.4893C258.988 100.289 266.254 104.754 272.385 110.389C278.481 116.059 283.479 122.969 286.881 130.624C290.284 138.278 292.127 146.677 292.198 154.969C292.304 163.262 290.745 171.696 287.519 179.421L287.59 179.528Z" fill="#242424"/>
</svg>
